<?xml version="1.0" encoding="iso-8859-1"?>
<!-- Generator: Adobe Illustrator 19.0.0, SVG Export Plug-In . SVG Version: 6.00 Build 0)  -->
<svg version="1.1" id="Capa_1" xmlns="http://www.w3.org/2000/svg" xmlns:xlink="http://www.w3.org/1999/xlink" x="0px" y="0px"
	 viewBox="0 0 50 50" style="enable-background:new 0 0 50 50;" xml:space="preserve">
<circle style="fill:#1A5276;" cx="25" cy="25" r="25"/>
<polyline style="fill:none;stroke:#FFF;stroke-width:2;stroke-linecap:round;stroke-miterlimit:10;" points="14,36 25,25 36,14 
	"/>
<polyline style="fill:none;stroke:#FFF;stroke-width:2;stroke-linecap:round;stroke-miterlimit:10;" points="14,14 25,25 36,36 
	"/>
<g>
</g>
<g>
</g>
<g>
</g>
<g>
</g>
<g>
</g>
<g>
</g>
<g>
</g>
<g>
</g>
<g>
</g>
<g>
</g>
<g>
</g>
<g>
</g>
<g>
</g>
<g>
</g>
<g>
</g>
</svg>
